{
  "project_info": {
    "project_number": "205494482542",
    "firebase_url": "https://easy-recipe-14403.firebaseio.com",
    "project_id": "easy-recipe-14403",
    "storage_bucket": "easy-recipe-14403.appspot.com"
  },
  "client": [
    {
      "client_info": {
        "mobilesdk_app_id": "1:205494482542:android:21f78d7fbba8b79a",
        "android_client_info": {
          "package_name": "aryan.easy_recipe"
        }
      },
      "oauth_client": [
        {
          "client_id": "205494482542-r6hr62lm9pkcuujlckp85ud49mqkb0td.apps.googleusercontent.com",
          "client_type": 3
        }
      ],
      "api_key": [
        {
          "current_key": "AIzaSyCfKR-FBa-4-HyeX7w9t4UoAdOZ_f1FPZk"
        }
      ],
      "services": {
        "appinvite_service": {
          "other_platform_oauth_client": [
            {
              "client_id": "205494482542-r6hr62lm9pkcuujlckp85ud49mqkb0td.apps.googleusercontent.com",
              "client_type": 3
            }
          ]
        }
      }
    }
  ],
  "configuration_version": "1"
}